…
    

* 나이에 따른 수입

  ```R
  welfare$age <- welfare %>%
  			filter(!is.na(age)) %>%
  			group_by(age) %>%
  			summarise(mean_income=mean(income))
  
  welfare$age
  ## ------ 결과 ------
  # A tibble: 69 x 2
       age mean_income
     <dbl>       <dbl>
   1    26        121.
   2    27        106.
   3    28        130.
   4    29        142.
   5    30        134.
   6    31        145.
   7    32        158.
   8    33        188.
   9    34        205.
  10    35        189.
  # ... with 59 more rows
  ```
…
