…
### 나이, 성별 데이터 만들기

* 성별, 나이별 평균 수입

  ```R
  sex_age_income <- welfare %>%
  	filter(!is.na(income)) %>%
  	group_by(sex, age) %>%
  	summarise(mean_income=mean(income))
  sex_age_income
  ## ------ 결과 ------
  # A tibble: 134 x 3
  # Groups:   sex [2]
     sex      age mean_income
     <chr>  <dbl>       <dbl>
   1 female    26        147.
   2 female    27        107.
   3 female    28        140.
   4 female    29        139.
   5 female    30        126.
   6 female    31        147.
   7 female    32        163.
   8 female    33        185.
   9 female    34        191.
  10 female    35        192.
  # ... with 124 more rows
  ```
…
