…
### 직업별 월급표 만들기

```R
job_income <- welfare %>%
    filter(!is.na(job) & !is.na(income)) %>%
    group_by(job) %>%
    summarise(mean_income=mean(income))

job_income
## ------ 결과 ------
# A tibble: 142 x 2
   job                    mean_income
   <chr>                        <dbl>
 1 가사 및 육아 도우미           80.2
 2 간호사                       241. 
 3 건설 및 광업 단순 종~        190. 
 4 건설 및 채굴 기계운전~       358. 
 5 건설 전기 및 생산 관~        536. 
 6 건설관련 기능 종사자         247. 
 7 건설구조관련 기능 종~        242. 
 8 건축 및 토목 공학 기~        378. 
 9 건축마감관련 기능 종~        254. 
10 경비원 및 검표원             134. 
# ... with 132 more rows
```
…
